R for Data Science Day 1 | Darya Vanichkina
…
+ coord_cartesian(xlim = c(1,2), ylim) - retain outlier

+ xlim() - remove outlier

On average, humans are best able to perceive differences in angles relative to 45 degrees. The function ggthemes::bank_slopes() will calculate the optimal aspect ratio to bank slopes to 45-degrees.

Use the near() function to test for equality of numbers (as it’s better able to handle those pesky computer math issues)

You can use matches("(.)\\1") with select() to pick variables based on arbitrary regex. num_range("x", 1:3): matches x1, x2 and x3.

Use select() in conjunction with the everything() helper, when you want to , for example, move a handful of variables to the start of the data frame.

select(flights, time_hour, air_time, everything())

# A tibble: 336,776 x 19
   time_hour           air_time  year month   day dep_time sched_dep_time dep_delay arr_time sched_arr_time arr_delay carrier
   <dttm>                 <dbl> <int> <int> <int>    <int>          <int>     <dbl>    <int>          <int>     <dbl> <chr>  
 1 2013-01-01 05:00:00      227  2013     1     1      517            515         2      830            819        11 UA     
 2 2013-01-01 05:00:00      227  2013     1     1      533            529         4      850            830        20 UA     
 3 2013-01-01 05:00:00      160  2013     1     1      542            540         2      923            850        33 AA     
 4 2013-01-01 05:00:00      183  2013     1     1      544            545        -1     1004           1022       -18 B6     
 5 2013-01-01 06:00:00      116  2013     1     1      554            600        -6      812            837       -25 DL     
 6 2013-01-01 05:00:00      150  2013     1     1      554            558        -4      740            728        12 UA     
 7 2013-01-01 06:00:00      158  2013     1     1      555            600        -5      913            854        19 B6     
 8 2013-01-01 06:00:00       53  2013     1     1      557            600        -3      709            723       -14 EV     
 9 2013-01-01 06:00:00      140  2013     1     1      557            600        -3      838            846        -8 B6     
10 2013-01-01 06:00:00      138  2013     1     1      558            600        -2      753            745         8 AA     
# … with 336,766 more rows, and 7 more variables: flight <int>, tailnum <chr>, origin <chr>, dest <chr>, distance <dbl>,
#   hour <dbl>, minute <dbl>
…
